%YAML 1.1
%TAG !u! tag:unity3d.com,2011:
--- !u!1045 &1
EditorBuildSettings:
  m_ObjectHideFlags: 0
  serializedVersion: 2
  m_Scenes:
  - enabled: 1
    path: Assets/PlacementIndicator/DemoScene.unity
    guid: a776f0f2b23b7ec48a536a6129f0bdfa
  m_configObjects:
    UnityEditor.XR.ARCore.ARCoreSettings: {fileID: 11400000, guid: 687424044738b43178898d17a1437859,
      type: 2}
    UnityEditor.XR.ARKit.ARKitSettings: {fileID: 11400000, guid: b290bfaf43dd44e2fafd8343b8bc0403,
      type: 2}
    com.unity.xr.arcore.PlayerSettings: {fileID: 11400000, guid: fdd59603f19f1564992f28a9a201b999,
      type: 2}
