%YAML 1.1
%TAG !u! tag:unity3d.com,2011:
--- !u!1045 &1
EditorBuildSettings:
  m_ObjectHideFlags: 0
  serializedVersion: 2
  m_Scenes: []
  m_configObjects:
    Unity.XR.Oculus.Settings: {fileID: 11400000, guid: 0e809ab4dd4b04115b62361ffc5675d6, type: 2}
    com.unity.xr.management.loader_settings: {fileID: 11400000, guid: b02bdeea4ffbd4720a1b2f96f0a64ec1, type: 2}
